…
We first need to calculate the cumulative number of trees as well as the proportions. We do this using the `tdData` function.

``` r
tdTilia <- tdData(tilia, x = "Day", y = "Trees")
tdTilia
#> # A tibble: 26 × 4
#>      Day Trees  cumN    propMax
#>    <int> <dbl> <dbl>      <dbl>
#> 1     96     1     1 0.01538462
#> 2    103     1     2 0.03076923
#> 3    105     3     5 0.07692308
#> 4    107     1     6 0.09230769
#> 5    110     4    10 0.15384615
#> 6    111     7    17 0.26153846
#> 7    112     3    20 0.30769231
#> 8    114     1    21 0.32307692
#> 9    115     3    24 0.36923077
#> 10   116     6    30 0.46153846
#> # ... with 16 more rows
```
…
